…
``` r
prop_df = 
  total_unsolved_df %>% 
  mutate(result = purrr::map2(.x = number_unsolved_homicide, .y = total_number_homicide, ~broom::tidy(prop.test(x = .x, n = .y, alternative = "two.sided", conf.level = 0.95, correct = TRUE)))) %>% 
  unnest(result) %>% 
  select(city_state, estimate, conf.low, conf.high) %>% 
  mutate(confidence_interval = paste("(", round(conf.low, 4), ",", round(conf.high, 4), ")"))

prop_df
```

    ## # A tibble: 51 × 5
    ##    city_state      estimate conf.low conf.high confidence_interval
    ##    <chr>              <dbl>    <dbl>     <dbl> <chr>              
    ##  1 Albuquerque, NM    0.386    0.337     0.438 ( 0.3373 , 0.4376 )
    ##  2 Atlanta, GA        0.383    0.353     0.415 ( 0.3528 , 0.4148 )
    ##  3 Baltimore, MD      0.646    0.628     0.663 ( 0.6276 , 0.6632 )
    ##  4 Baton Rouge, LA    0.462    0.414     0.511 ( 0.4142 , 0.511 ) 
    ##  5 Birmingham, AL     0.434    0.399     0.469 ( 0.3992 , 0.469 ) 
    ##  6 Boston, MA         0.505    0.465     0.545 ( 0.4646 , 0.5451 )
    ##  7 Buffalo, NY        0.612    0.569     0.654 ( 0.5688 , 0.6541 )
    ##  8 Charlotte, NC      0.300    0.266     0.336 ( 0.2661 , 0.3359 )
    ##  9 Chicago, IL        0.736    0.724     0.747 ( 0.724 , 0.7474 ) 
    ## 10 Cincinnati, OH     0.445    0.408     0.483 ( 0.408 , 0.4831 ) 
    ## # … with 41 more rows
…
